{
	"info": {
		"_postman_id": "fd282d05-a7af-4b9a-83ba-70059dec4b95",
		"name": "ISV3-93",
		"schema": "https://schema.getpostman.com/json/collection/v2.1.0/collection.json",
		"_exporter_id": "14044818",
		"_collection_link": "https://www.postman.com/lunar-module-operator-75812474/workspace/isv/collection/14044818-fd282d05-a7af-4b9a-83ba-70059dec4b95?action=share&creator=14044818&source=collection_link"
	},
	"item": [
		{
			"name": "Get all forests",
			"request": {
				"method": "GET",
				"header": [],
				"url": {
					"raw": "http://localhost:3000/forests",
					"protocol": "http",
					"host": [
						"localhost"
					],
					"port": "3000",
					"path": [
						"forests"
					]
				}
			},
			"response": []
		},
		{
			"name": "Get forest by id",
			"request": {
				"method": "GET",
				"header": [],
				"url": {
					"raw": "http://localhost:3000/forests/:id",
					"protocol": "http",
					"host": [
						"localhost"
					],
					"port": "3000",
					"path": [
						"forests",
						":id"
					],
					"variable": [
						{
							"key": "id",
							"value": "2"
						}
					]
				}
			},
			"response": []
		},
		{
			"name": "Add a forest",
			"request": {
				"method": "POST",
				"header": [],
				"body": {
					"mode": "formdata",
					"formdata": [
						{
							"key": "name",
							"value": "Yosemite National Park",
							"type": "text"
						},
						{
							"key": "state",
							"value": "California",
							"type": "text"
						}
					]
				},
				"url": {
					"raw": "http://localhost:3000/forests",
					"protocol": "http",
					"host": [
						"localhost"
					],
					"port": "3000",
					"path": [
						"forests"
					]
				}
			},
			"response": []
		},
		{
			"name": "Update forest",
			"request": {
				"method": "PATCH",
				"header": [],
				"body": {
					"mode": "formdata",
					"formdata": [
						{
							"key": "name",
							"value": "Yellowstone National Park",
							"type": "text"
						},
						{
							"key": "state",
							"value": "Moldova",
							"type": "text"
						}
					]
				},
				"url": {
					"raw": "http://localhost:3000/forests/:id",
					"protocol": "http",
					"host": [
						"localhost"
					],
					"port": "3000",
					"path": [
						"forests",
						":id"
					],
					"variable": [
						{
							"key": "id",
							"value": "31"
						}
					]
				}
			},
			"response": []
		},
		{
			"name": "Delete forest",
			"request": {
				"method": "DELETE",
				"header": [],
				"url": {
					"raw": "http://localhost:3000/forests/:id",
					"protocol": "http",
					"host": [
						"localhost"
					],
					"port": "3000",
					"path": [
						"forests",
						":id"
					],
					"variable": [
						{
							"key": "id",
							"value": "33"
						}
					]
				}
			},
			"response": []
		},
		{
			"name": "Get all Trails",
			"request": {
				"method": "GET",
				"header": [],
				"url": {
					"raw": "http://localhost:3000/trails",
					"protocol": "http",
					"host": [
						"localhost"
					],
					"port": "3000",
					"path": [
						"trails"
					]
				}
			},
			"response": []
		},
		{
			"name": "Get trail by id",
			"request": {
				"method": "GET",
				"header": [],
				"url": {
					"raw": "http://localhost:3000/trails/:id",
					"protocol": "http",
					"host": [
						"localhost"
					],
					"port": "3000",
					"path": [
						"trails",
						":id"
					],
					"variable": [
						{
							"key": "id",
							"value": "30"
						}
					]
				}
			},
			"response": []
		},
		{
			"name": "Add a trail",
			"request": {
				"method": "POST",
				"header": [],
				"body": {
					"mode": "raw",
					"raw": "   {\n     \"trail\": {\n       \"name\": \"a new trail\",\n       \"miles\": 5,\n       \"forest_id\": 30\n     }\n   }\n",
					"options": {
						"raw": {
							"language": "json"
						}
					}
				},
				"url": {
					"raw": "http://localhost:3000/trails",
					"protocol": "http",
					"host": [
						"localhost"
					],
					"port": "3000",
					"path": [
						"trails"
					]
				}
			},
			"response": []
		},
		{
			"name": "Update a trail",
			"request": {
				"method": "PATCH",
				"header": [],
				"body": {
					"mode": "raw",
					"raw": "{\n  \"trail\": {\n    \"name\": \"New Trail Name\",\n    \"miles\": 10,\n    \"forest_id\": 29\n  }\n}\n",
					"options": {
						"raw": {
							"language": "json"
						}
					}
				},
				"url": {
					"raw": "http://localhost:3000/trails/:id",
					"protocol": "http",
					"host": [
						"localhost"
					],
					"port": "3000",
					"path": [
						"trails",
						":id"
					],
					"variable": [
						{
							"key": "id",
							"value": "32"
						}
					]
				}
			},
			"response": []
		},
		{
			"name": "Delete a trail",
			"request": {
				"method": "DELETE",
				"header": [],
				"url": {
					"raw": "http://localhost:3000/trails/:id",
					"protocol": "http",
					"host": [
						"localhost"
					],
					"port": "3000",
					"path": [
						"trails",
						":id"
					],
					"variable": [
						{
							"key": "id",
							"value": "34"
						}
					]
				}
			},
			"response": []
		},
		{
			"name": "Gell all hikers",
			"request": {
				"method": "GET",
				"header": [],
				"url": {
					"raw": "http://localhost:3000/hikers",
					"protocol": "http",
					"host": [
						"localhost"
					],
					"port": "3000",
					"path": [
						"hikers"
					]
				}
			},
			"response": []
		},
		{
			"name": "Get hiker by id",
			"request": {
				"method": "GET",
				"header": [],
				"url": {
					"raw": "http://localhost:3000/hikers/:id",
					"protocol": "http",
					"host": [
						"localhost"
					],
					"port": "3000",
					"path": [
						"hikers",
						":id"
					],
					"variable": [
						{
							"key": "id",
							"value": "31"
						}
					]
				}
			},
			"response": []
		},
		{
			"name": "Add a hiker",
			"request": {
				"method": "POST",
				"header": [],
				"body": {
					"mode": "raw",
					"raw": "     {\n       \"hiker\": {\n         \"name\": \"New Hiker\",\n         \"age\": 25,\n         \"trail_id\": 26\n       }\n     }\n",
					"options": {
						"raw": {
							"language": "json"
						}
					}
				},
				"url": {
					"raw": "http://localhost:3000/hikers",
					"protocol": "http",
					"host": [
						"localhost"
					],
					"port": "3000",
					"path": [
						"hikers"
					]
				}
			},
			"response": []
		},
		{
			"name": "Update hiker",
			"request": {
				"method": "PATCH",
				"header": [],
				"body": {
					"mode": "raw",
					"raw": "     {\n       \"hiker\": {\n         \"name\": \"Updated Name\",\n         \"age\": 30,\n         \"trail_id\": 30\n       }\n     }",
					"options": {
						"raw": {
							"language": "json"
						}
					}
				},
				"url": {
					"raw": "http://localhost:3000/hikers/:id",
					"protocol": "http",
					"host": [
						"localhost"
					],
					"port": "3000",
					"path": [
						"hikers",
						":id"
					],
					"variable": [
						{
							"key": "id",
							"value": "37"
						}
					]
				}
			},
			"response": []
		},
		{
			"name": "Delete a hiker",
			"request": {
				"method": "DELETE",
				"header": [],
				"url": {
					"raw": "http://localhost:3000/hikers/:id",
					"protocol": "http",
					"host": [
						"localhost"
					],
					"port": "3000",
					"path": [
						"hikers",
						":id"
					],
					"variable": [
						{
							"key": "id",
							"value": "37"
						}
					]
				}
			},
			"response": []
		}
	]
}